%YAML 1.1
%TAG !u! tag:unity3d.com,2011:
--- !u!21 &2100000
Material:
  serializedVersion: 6
  m_ObjectHideFlags: 0
  m_CorrespondingSourceObject: {fileID: 0}
  m_PrefabInstance: {fileID: 0}
  m_PrefabAsset: {fileID: 0}
  m_Name: F00_000_HairBack_00_HAIR
  m_Shader: {fileID: 4800000, guid: 1a97144e4ad27a04aafd70f7b915cedb, type: 3}
  m_ShaderKeywords: _ALPHABLEND_ON _NORMALMAP
  m_LightmapFlags: 4
  m_EnableInstancingVariants: 0
  m_DoubleSidedGI: 0
  m_CustomRenderQueue: 4600
  stringTagMap:
    RenderType: Opaque
  disabledShaderPasses: []
  m_SavedProperties:
    serializedVersion: 3
    m_TexEnvs:
    - _BumpMap:
        m_Texture: {fileID: 2800000, guid: b329449dadb8124459b0d302386d4400, type: 3}
        m_Scale: {x: 1, y: 1}
        m_Offset: {x: 0, y: 0}
    - _EmissionMap:
        m_Texture: {fileID: 2800000, guid: 97c79acdd1979874e93a1eef716daabc, type: 3}
        m_Scale: {x: 1, y: 1}
        m_Offset: {x: 0, y: 0}
    - _MainTex:
        m_Texture: {fileID: 2800000, guid: d29ab535c8ecaa9408a4b05c9fbca914, type: 3}
        m_Scale: {x: 1, y: 1}
        m_Offset: {x: 0, y: 0}
    - _OutlineWidthTexture:
        m_Texture: {fileID: 0}
        m_Scale: {x: 1, y: 1}
        m_Offset: {x: 0, y: 0}
    - _ReceiveShadowTexture:
        m_Texture: {fileID: 0}
        m_Scale: {x: 1, y: 1}
        m_Offset: {x: 0, y: 0}
    - _ShadeTexture:
        m_Texture: {fileID: 2800000, guid: d29ab535c8ecaa9408a4b05c9fbca914, type: 3}
        m_Scale: {x: 1, y: 1}
        m_Offset: {x: 0, y: 0}
    - _ShadingGradeTexture:
        m_Texture: {fileID: 0}
        m_Scale: {x: 1, y: 1}
        m_Offset: {x: 0, y: 0}
    - _SphereAdd:
        m_Texture: {fileID: 2800000, guid: 9b30f74b8c928f04bac76ab08d4a637e, type: 3}
        m_Scale: {x: 1, y: 1}
        m_Offset: {x: 0, y: 0}
    m_Floats:
    - _BlendMode: 2
    - _BumpScale: 1
    - _CullMode: 2
    - _Cutoff: 0.5
    - _DebugMode: 0
    - _DstBlend: 10
    - _IndirectLightIntensity: 0.1
    - _LightColorAttenuation: 0
    - _OutlineColorMode: 1
    - _OutlineCullMode: 1
    - _OutlineLightingMix: 1
    - _OutlineScaledMaxDistance: 1
    - _OutlineWidth: 0.165
    - _OutlineWidthMode: 0
    - _ReceiveShadowRate: 1
    - _ShadeShift: -0.3
    - _ShadeToony: 0
    - _ShadingGradeRate: 1
    - _SrcBlend: 5
    - _ZWrite: 0
    m_Colors:
    - _Color: {r: 0.16763006, g: 0.12292872, b: 0.08381503, a: 1}
    - _EmissionColor: {r: 0.41040462, g: 0.37757227, b: 0.3283237, a: 1}
    - _OutlineColor: {r: 0, g: 0, b: 0, a: 1}
    - _ShadeColor: {r: 0.098265894, g: 0.0896185, b: 0.0766474, a: 1}
